7 Scenario VI: binomial distribution, point prior | Validation Report for adoptr package
…
tibble(
    x1     = seq(opt_cp$design@c1f, opt_cp$design@c1e, length.out = 25),
    cp     = map_dbl(x1, ~evaluate(cp, opt_cp$design, .)),
    cp_sim = map_dbl(x1, function(x1) {
        x2  <- simulate(datadist, 10^6, n2(opt_cp$design, x1), .2, 42)
        rej <- ifelse(x2 > c2(opt_cp$design, x1), 1, 0)
        return(mean(rej))
    }) ) %>% 
  {print(.); .} %>% {
      testthat::expect_true(all(.$cp     >= 0.85 * (1 - tol)))
      testthat::expect_true(all(.$cp_sim >= 0.85 * (1 - tol))) 
      testthat::expect_true(all(abs(.$cp - .$cp_sim) <= tol)) }

## # A tibble: 25 × 3
##       x1    cp cp_sim
##    <dbl> <dbl>  <dbl>
##  1 0.586 0.850  0.849
##  2 0.657 0.850  0.850
##  3 0.727 0.851  0.851
##  4 0.798 0.851  0.851
##  5 0.868 0.849  0.848
##  6 0.939 0.849  0.849
##  7 1.01  0.850  0.849
##  8 1.08  0.850  0.850
##  9 1.15  0.851  0.851
## 10 1.22  0.852  0.851
## # ℹ 15 more rows
…
