3 Scenario II: large effect, Gaussian prior | Validation Report for adoptr package
…
testthat::expect_true(tbl_toer$toer <= alpha * (1 + tol))
testthat::expect_true(tbl_toer$toer_sim <= alpha * (1 + tol))

The conditional power is evaluated via numerical integration on several points
inside the continuation region and it is tested whether the constraint is
fulfilled on all these points.

tibble(
    x1 = seq(opt_cp$design@c1f, opt_cp$design@c1e, length.out = 25),
    cp = map_dbl(x1, ~evaluate(cp, opt_cp$design, .)) ) %>% 
  {print(.); .} %>% {
      testthat::expect_true(all(.$cp >= 0.7 * (1 - tol))) }

## # A tibble: 25 × 2
##       x1    cp
##    <dbl> <dbl>
##  1 0.674 0.698
##  2 0.747 0.700
##  3 0.819 0.700
##  4 0.891 0.699
##  5 0.963 0.698
##  6 1.03  0.698
##  7 1.11  0.701
##  8 1.18  0.705
##  9 1.25  0.709
## 10 1.32  0.715
## # ℹ 15 more rows
…
